{
  "object":"objects/barrel/barrel.obj",
  "texture": "objects/barrel/barrel_tex.png",
  "speed": 0.0,
  "tree":{
    "frames": [
      {"d":[1, 0, 0, 0], "t":0}
    ],
    "children":[],
    "head": [0, 0, 0],
    "name": "Barrel",
    "tail": [0, 0, 0]
  }
}
